{
  "type": "object",
  "properties": {
    "code": {
      "type": ["string", "null"]
    },
    "created_at": {
      "type": ["string", "null"]
    },
    "custom_attributes": {
      "type": "object"
    },
    "description": {
      "type": ["string", "null"]
    },
    "id": {
      "type": "integer"
    },
    "links": {
      "type": "object"
    },
    "mapped": {
      "type": "object",
      "properties": {
        "audits": {
          "type": "array",
          "items":{
            "$ref": "#"
          }
        },
        "controls": {
          "type": "array",
          "items":{
            "$ref": "#"
          }
        },
        "programs": {
          "type": "array",
          "items":{
            "$ref": "#"
          }
        },
        "standards": {
          "type": "array",
          "items":{
            "$ref": "#"
          }
        }
      }
    },
    "notes": {
      "type": ["string", "null"]
    },
    "status": {
      "type": ["string", "null"]
    },
    "stop_date": {
      "type": ["string", "null"]
    },
    "tags": {
      "type": "array",
      "items":{
        "$ref": "#"
      }
    },
    "title": {
      "type": ["string", "null"]
    },
    "type": {
      "type": ["string", "null"]
    },
    "updated_at": {
      "type": ["string", "null"]
    }
  }
}